<?xml version="1.0" encoding="utf-8"?>
<!-- Generator: Adobe Illustrator 23.0.3, SVG Export Plug-In . SVG Version: 6.00 Build 0)  -->
<svg version="1.1" id="Слой_1" xmlns="http://www.w3.org/2000/svg" xmlns:xlink="http://www.w3.org/1999/xlink" x="0px" y="0px"
	 viewBox="0 0 100 100" style="enable-background:new 0 0 100 100;" xml:space="preserve">
<g>
	<path d="M79.7,51.8c-1.6-1.6-4.5-1.6-6.2,0L50.9,74.4l-3.1,11.4l-0.7,0.8c-0.6,0.6-0.6,1.4,0,2l0,0l0,0c0.3,0.3,0.7,0.4,1,0.4
		s0.8-0.2,1-0.4l0.8-0.8l11.4-3.1l22.5-22.5c1.7-1.7,1.7-4.5,0-6.2L79.7,51.8z M54.3,75.2l15-15l6.2,6.2l-15,15L54.3,75.2z M53.1,78
		l4.8,4.8l-6.5,1.8L53.1,78z M81.8,60.1l-4.2,4.2l-6.2-6.2l4.2-4.2c0.5-0.5,1.5-0.5,2,0l4.2,4.2C82.4,58.6,82.4,59.5,81.8,60.1z"/>
	<path d="M61.7,44.6c0-0.5-0.3-0.9-0.7-1.2L44.9,33.2c-0.4-0.3-1-0.3-1.5-0.1c-0.5,0.3-0.8,0.8-0.8,1.3v20.5c0,0.5,0.3,1,0.8,1.3
		c0.3,0.1,0.4,0.2,0.7,0.2c0.3,0,0.5-0.1,0.8-0.3L61,45.8C61.5,45.7,61.7,45.2,61.7,44.6z M45.6,52.3V37.1l11.9,7.6L45.6,52.3z"/>
	<path d="M91,11H76.3H23.6H8.9c-0.8,0-1.4,0.7-1.4,1.4v16.1v16.1v16.2V77c0,0.8,0.7,1.4,1.4,1.4h14.7h17.6c0.8,0,1.4-0.7,1.4-1.4
		c0-0.8-0.7-1.4-1.4-1.4H25.1V60.8V44.6V28.5V13.9h49.8v14.6v16.1c0,0.8,0.7,1.4,1.4,1.4h13.2v11.7c0,0.8,0.7,1.4,1.4,1.4
		s1.4-0.7,1.4-1.4V44.6V28.5V12.3C92.5,11.7,91.8,11,91,11z M10.4,46.2h11.7v13.2H10.4V46.2z M22.1,43.2H10.4V30h11.7V43.2z
		 M10.4,75.4V62.2h11.7v13.2H10.4z M22.1,27H10.4V13.9h11.7V27z M89.6,13.9V27H77.9V13.9H89.6z M77.9,43.2V30h11.7v13.2H77.9z"/>
</g>
</svg>
